Date;Home Team;Away Team
23/10/2019 00:00;Toronto Raptors;New Orleans Pelicans
23/10/2019 02:30;LA Clippers;Los Angeles Lakers
23/10/2019 23:00;Charlotte Hornets;Chicago Bulls
23/10/2019 23:00;Indiana Pacers;Detroit Pistons
23/10/2019 23:00;Orlando Magic;Cleveland Cavaliers
23/10/2019 23:30;Brooklyn Nets;Minnesota Timberwolves
23/10/2019 23:30;Miami Heat;Memphis Grizzlies
23/10/2019 23:30;Philadelphia 76ers;Boston Celtics
24/10/2019 00:30;Dallas Mavericks;Washington Wizards
24/10/2019 00:30;San Antonio Spurs;New York Knicks
24/10/2019 01:00;Utah Jazz;Oklahoma City Thunder
24/10/2019 02:00;Phoenix Suns;Sacramento Kings
24/10/2019 02:00;Portland Trail Blazers;Denver Nuggets
24/10/2019 23:00;Detroit Pistons;Atlanta Hawks
25/10/2019 00:00;Houston Rockets;Milwaukee Bucks
25/10/2019 02:30;Golden State Warriors;LA Clippers
25/10/2019 23:00;Boston Celtics;Toronto Raptors
25/10/2019 23:00;Charlotte Hornets;Minnesota Timberwolves
25/10/2019 23:30;Brooklyn Nets;New York Knicks
26/10/2019 00:00;Memphis Grizzlies;Chicago Bulls
26/10/2019 00:00;New Orleans Pelicans;Dallas Mavericks
26/10/2019 00:00;Oklahoma City Thunder;Washington Wizards
26/10/2019 01:00;Denver Nuggets;Phoenix Suns
26/10/2019 02:00;Sacramento Kings;Portland Trail Blazers
26/10/2019 02:30;Los Angeles Lakers;Utah Jazz
26/10/2019 21:00;Milwaukee Bucks;Miami Heat
26/10/2019 23:00;Detroit Pistons;Philadelphia 76ers
26/10/2019 23:30;Atlanta Hawks;Orlando Magic
26/10/2019 23:30;New York Knicks;Boston Celtics
27/10/2019 00:00;Cleveland Cavaliers;Indiana Pacers
27/10/2019 00:00;Chicago Bulls;Toronto Raptors
27/10/2019 00:00;Houston Rockets;New Orleans Pelicans
27/10/2019 00:30;San Antonio Spurs;Washington Wizards
27/10/2019 01:00;Utah Jazz;Sacramento Kings
27/10/2019 02:00;Phoenix Suns;LA Clippers
27/10/2019 19:30;Oklahoma City Thunder;Golden State Warriors
27/10/2019 22:00;Memphis Grizzlies;Brooklyn Nets
27/10/2019 23:00;Dallas Mavericks;Portland Trail Blazers
27/10/2019 23:00;Minnesota Timberwolves;Miami Heat
28/10/2019 01:30;Los Angeles Lakers;Charlotte Hornets
28/10/2019 23:00;Detroit Pistons;Indiana Pacers
28/10/2019 23:00;New York Knicks;Chicago Bulls
28/10/2019 23:30;Atlanta Hawks;Philadelphia 76ers
28/10/2019 23:30;Toronto Raptors;Orlando Magic
29/10/2019 00:00;Houston Rockets;Oklahoma City Thunder
29/10/2019 00:00;Milwaukee Bucks;Cleveland Cavaliers
29/10/2019 00:00;New Orleans Pelicans;Golden State Warriors
29/10/2019 00:30;San Antonio Spurs;Portland Trail Blazers
29/10/2019 02:00;Phoenix Suns;Utah Jazz
29/10/2019 02:00;Sacramento Kings;Denver Nuggets
29/10/2019 02:30;LA Clippers;Charlotte Hornets
29/10/2019 23:30;Miami Heat;Atlanta Hawks
30/10/2019 01:00;Denver Nuggets;Dallas Mavericks
30/10/2019 02:30;Los Angeles Lakers;Memphis Grizzlies
30/10/2019 23:00;Cleveland Cavaliers;Chicago Bulls
30/10/2019 23:00;Orlando Magic;New York Knicks
30/10/2019 23:00;Philadelphia 76ers;Minnesota Timberwolves
30/10/2019 23:30;Boston Celtics;Milwaukee Bucks
30/10/2019 23:30;Brooklyn Nets;Indiana Pacers
30/10/2019 23:30;Toronto Raptors;Detroit Pistons
31/10/2019 00:00;Washington Wizards;Houston Rockets
31/10/2019 00:00;Oklahoma City Thunder;Portland Trail Blazers
31/10/2019 02:00;Utah Jazz;LA Clippers
31/10/2019 02:00;Sacramento Kings;Charlotte Hornets
31/10/2019 02:30;Golden State Warriors;Phoenix Suns
31/10/2019 23:00;Atlanta Hawks;Miami Heat
01/11/2019 01:30;New Orleans Pelicans;Denver Nuggets
01/11/2019 02:30;LA Clippers;San Antonio Spurs
01/11/2019 23:00;Brooklyn Nets;Houston Rockets
01/11/2019 23:00;Indiana Pacers;Cleveland Cavaliers
01/11/2019 23:00;Orlando Magic;Milwaukee Bucks
01/11/2019 23:30;Boston Celtics;New York Knicks
02/11/2019 00:00;Chicago Bulls;Detroit Pistons
02/11/2019 01:30;Dallas Mavericks;Los Angeles Lakers
02/11/2019 02:00;Sacramento Kings;Utah Jazz
02/11/2019 02:30;Golden State Warriors;San Antonio Spurs
02/11/2019 21:00;Oklahoma City Thunder;New Orleans Pelicans
02/11/2019 23:00;Detroit Pistons;Brooklyn Nets
02/11/2019 23:00;Orlando Magic;Denver Nuggets
03/11/2019 00:00;Washington Wizards;Minnesota Timberwolves
03/11/2019 00:00;Memphis Grizzlies;Phoenix Suns
03/11/2019 00:00;Milwaukee Bucks;Toronto Raptors
03/11/2019 00:30;Golden State Warriors;Charlotte Hornets
03/11/2019 02:00;Portland Trail Blazers;Philadelphia 76ers
03/11/2019 22:00;Indiana Pacers;Chicago Bulls
03/11/2019 23:00;Miami Heat;Houston Rockets
03/11/2019 23:00;New York Knicks;Sacramento Kings
04/11/2019 00:00;San Antonio Spurs;Los Angeles Lakers
04/11/2019 00:30;Cleveland Cavaliers;Dallas Mavericks
04/11/2019 02:00;LA Clippers;Utah Jazz
05/11/2019 00:00;Washington Wizards;Detroit Pistons
05/11/2019 00:30;Brooklyn Nets;New Orleans Pelicans
05/11/2019 01:00;Memphis Grizzlies;Houston Rockets
05/11/2019 01:00;Minnesota Timberwolves;Milwaukee Bucks
05/11/2019 02:00;Phoenix Suns;Philadelphia 76ers
05/11/2019 03:30;Golden State Warriors;Portland Trail Blazers
06/11/2019 00:00;Charlotte Hornets;Indiana Pacers
06/11/2019 00:00;Cleveland Cavaliers;Boston Celtics
06/11/2019 00:30;Atlanta Hawks;San Antonio Spurs
06/11/2019 01:00;Chicago Bulls;Los Angeles Lakers
06/11/2019 01:00;Oklahoma City Thunder;Orlando Magic
06/11/2019 02:00;Denver Nuggets;Miami Heat
07/11/2019 00:00;Detroit Pistons;New York Knicks
07/11/2019 00:00;Indiana Pacers;Washington Wizards
07/11/2019 00:30;Atlanta Hawks;Chicago Bulls
07/11/2019 00:30;Toronto Raptors;Sacramento Kings
07/11/2019 00:30;Houston Rockets;Golden State Warriors
07/11/2019 01:00;Memphis Grizzlies;Minnesota Timberwolves
07/11/2019 01:30;Dallas Mavericks;Orlando Magic
07/11/2019 02:00;Utah Jazz;Philadelphia 76ers
07/11/2019 03:00;LA Clippers;Milwaukee Bucks
08/11/2019 01:00;Charlotte Hornets;Boston Celtics
08/11/2019 01:30;San Antonio Spurs;Oklahoma City Thunder
08/11/2019 02:00;Phoenix Suns;Miami Heat
08/11/2019 03:30;LA Clippers;Portland Trail Blazers
09/11/2019 00:00;Indiana Pacers;Detroit Pistons
09/11/2019 00:00;Orlando Magic;Memphis Grizzlies
09/11/2019 00:00;Washington Wizards;Cleveland Cavaliers
09/11/2019 00:30;Atlanta Hawks;Sacramento Kings
09/11/2019 01:00;Minnesota Timberwolves;Golden State Warriors
09/11/2019 01:00;New Orleans Pelicans;Toronto Raptors
09/11/2019 01:30;Dallas Mavericks;New York Knicks
09/11/2019 02:00;Denver Nuggets;Philadelphia 76ers
09/11/2019 02:00;Utah Jazz;Milwaukee Bucks
09/11/2019 03:00;Portland Trail Blazers;Brooklyn Nets
09/11/2019 03:30;Los Angeles Lakers;Miami Heat
09/11/2019 22:00;San Antonio Spurs;Boston Celtics
10/11/2019 00:00;Charlotte Hornets;New Orleans Pelicans
10/11/2019 01:00;Chicago Bulls;Houston Rockets
10/11/2019 01:00;Memphis Grizzlies;Dallas Mavericks
10/11/2019 01:00;Oklahoma City Thunder;Golden State Warriors
10/11/2019 20:30;Minnesota Timberwolves;Denver Nuggets
10/11/2019 23:00;Orlando Magic;Indiana Pacers
10/11/2019 23:00;Philadelphia 76ers;Charlotte Hornets
11/11/2019 00:00;Oklahoma City Thunder;Milwaukee Bucks
11/11/2019 00:30;New York Knicks;Cleveland Cavaliers
11/11/2019 01:00;Phoenix Suns;Brooklyn Nets
11/11/2019 02:00;Portland Trail Blazers;Atlanta Hawks
11/11/2019 02:30;Los Angeles Lakers;Toronto Raptors
12/11/2019 00:00;Detroit Pistons;Minnesota Timberwolves
12/11/2019 00:30;Boston Celtics;Dallas Mavericks
12/11/2019 00:30;San Antonio Spurs;Memphis Grizzlies
12/11/2019 01:00;New Orleans Pelicans;Houston Rockets
12/11/2019 03:30;Golden State Warriors;Utah Jazz
12/11/2019 03:30;LA Clippers;Toronto Raptors
13/11/2019 00:00;Indiana Pacers;Oklahoma City Thunder
13/11/2019 00:00;Philadelphia 76ers;Cleveland Cavaliers
13/11/2019 00:30;Miami Heat;Detroit Pistons
13/11/2019 01:00;Chicago Bulls;New York Knicks
13/11/2019 02:00;Denver Nuggets;Atlanta Hawks
13/11/2019 02:00;Phoenix Suns;Los Angeles Lakers
13/11/2019 02:00;Utah Jazz;Brooklyn Nets
13/11/2019 03:00;Sacramento Kings;Portland Trail Blazers
14/11/2019 00:00;Charlotte Hornets;Memphis Grizzlies
14/11/2019 00:00;Orlando Magic;Philadelphia 76ers
14/11/2019 00:30;Boston Celtics;Washington Wizards
14/11/2019 00:30;Houston Rockets;LA Clippers
14/11/2019 01:00;Minnesota Timberwolves;San Antonio Spurs
14/11/2019 03:00;Los Angeles Lakers;Golden State Warriors
14/11/2019 03:00;Portland Trail Blazers;Toronto Raptors
14/11/2019 23:00;Cleveland Cavaliers;Miami Heat
15/11/2019 01:00;New York Knicks;Dallas Mavericks
15/11/2019 01:00;Milwaukee Bucks;Chicago Bulls
15/11/2019 01:00;New Orleans Pelicans;LA Clippers
15/11/2019 02:00;Phoenix Suns;Atlanta Hawks
15/11/2019 03:30;Denver Nuggets;Brooklyn Nets
16/11/2019 00:00;Charlotte Hornets;Detroit Pistons
16/11/2019 00:00;Orlando Magic;San Antonio Spurs
16/11/2019 01:00;Houston Rockets;Indiana Pacers
16/11/2019 01:00;Memphis Grizzlies;Utah Jazz
16/11/2019 01:00;Minnesota Timberwolves;Washington Wizards
16/11/2019 01:00;Oklahoma City Thunder;Philadelphia 76ers
16/11/2019 03:30;Golden State Warriors;Boston Celtics
16/11/2019 03:30;Los Angeles Lakers;Sacramento Kings
16/11/2019 23:00;Chicago Bulls;Brooklyn Nets
17/11/2019 00:00;Indiana Pacers;Milwaukee Bucks
17/11/2019 00:30;New York Knicks;Charlotte Hornets
17/11/2019 01:00;Miami Heat;New Orleans Pelicans
17/11/2019 01:00;Minnesota Timberwolves;Houston Rockets
17/11/2019 01:30;Dallas Mavericks;Toronto Raptors
17/11/2019 01:30;San Antonio Spurs;Portland Trail Blazers
17/11/2019 03:30;LA Clippers;Atlanta Hawks
17/11/2019 20:00;Cleveland Cavaliers;Philadelphia 76ers
17/11/2019 20:30;Sacramento Kings;Boston Celtics
17/11/2019 23:00;Orlando Magic;Washington Wizards
17/11/2019 23:00;Memphis Grizzlies;Denver Nuggets
18/11/2019 00:00;New Orleans Pelicans;Golden State Warriors
18/11/2019 02:30;Los Angeles Lakers;Atlanta Hawks
19/11/2019 00:00;New York Knicks;Cleveland Cavaliers
19/11/2019 00:30;Brooklyn Nets;Indiana Pacers
19/11/2019 00:30;Toronto Raptors;Charlotte Hornets
19/11/2019 01:00;Chicago Bulls;Milwaukee Bucks
19/11/2019 01:00;Houston Rockets;Portland Trail Blazers
19/11/2019 01:30;Dallas Mavericks;San Antonio Spurs
19/11/2019 02:00;Phoenix Suns;Boston Celtics
19/11/2019 02:00;Utah Jazz;Minnesota Timberwolves
19/11/2019 03:30;LA Clippers;Oklahoma City Thunder
20/11/2019 01:00;Memphis Grizzlies;Golden State Warriors
20/11/2019 01:00;New Orleans Pelicans;Portland Trail Blazers
20/11/2019 03:00;Sacramento Kings;Phoenix Suns
20/11/2019 03:30;Los Angeles Lakers;Oklahoma City Thunder
21/11/2019 00:00;Philadelphia 76ers;New York Knicks
21/11/2019 00:00;Washington Wizards;San Antonio Spurs
21/11/2019 00:30;Atlanta Hawks;Milwaukee Bucks
21/11/2019 00:30;Brooklyn Nets;Charlotte Hornets
21/11/2019 00:30;Miami Heat;Cleveland Cavaliers
21/11/2019 00:30;Toronto Raptors;Orlando Magic
21/11/2019 00:30;Dallas Mavericks;Golden State Warriors
21/11/2019 01:00;Chicago Bulls;Detroit Pistons
21/11/2019 01:00;Minnesota Timberwolves;Utah Jazz
21/11/2019 02:00;Denver Nuggets;Houston Rockets
21/11/2019 03:00;LA Clippers;Boston Celtics
22/11/2019 01:00;Milwaukee Bucks;Portland Trail Blazers
22/11/2019 03:30;Phoenix Suns;New Orleans Pelicans
23/11/2019 00:00;Detroit Pistons;Atlanta Hawks
23/11/2019 00:00;Washington Wizards;Charlotte Hornets
23/11/2019 00:30;Brooklyn Nets;Sacramento Kings
23/11/2019 01:00;Philadelphia 76ers;San Antonio Spurs
23/11/2019 01:00;Chicago Bulls;Miami Heat
23/11/2019 01:00;Oklahoma City Thunder;Los Angeles Lakers
23/11/2019 01:30;Dallas Mavericks;Cleveland Cavaliers
23/11/2019 02:00;Denver Nuggets;Boston Celtics
23/11/2019 02:00;Utah Jazz;Golden State Warriors
23/11/2019 03:30;LA Clippers;Houston Rockets
23/11/2019 22:00;Minnesota Timberwolves;Phoenix Suns
24/11/2019 00:00;Charlotte Hornets;Chicago Bulls
24/11/2019 00:00;Indiana Pacers;Orlando Magic
24/11/2019 00:30;Atlanta Hawks;Toronto Raptors
24/11/2019 00:30;New York Knicks;San Antonio Spurs
24/11/2019 00:30;Philadelphia 76ers;Miami Heat
24/11/2019 01:00;Cleveland Cavaliers;Portland Trail Blazers
24/11/2019 01:00;Memphis Grizzlies;Los Angeles Lakers
24/11/2019 01:30;Milwaukee Bucks;Detroit Pistons
24/11/2019 02:00;Utah Jazz;New Orleans Pelicans
24/11/2019 20:30;Houston Rockets;Dallas Mavericks
24/11/2019 23:00;New York Knicks;Brooklyn Nets
24/11/2019 23:00;Washington Wizards;Sacramento Kings
25/11/2019 01:00;Denver Nuggets;Phoenix Suns
25/11/2019 02:00;LA Clippers;New Orleans Pelicans
26/11/2019 00:00;Cleveland Cavaliers;Brooklyn Nets
26/11/2019 00:00;Detroit Pistons;Orlando Magic
26/11/2019 00:00;Indiana Pacers;Memphis Grizzlies
26/11/2019 00:30;Atlanta Hawks;Minnesota Timberwolves
26/11/2019 00:30;Boston Celtics;Sacramento Kings
26/11/2019 00:30;Miami Heat;Charlotte Hornets
26/11/2019 00:30;Toronto Raptors;Philadelphia 76ers
26/11/2019 01:00;Chicago Bulls;Portland Trail Blazers
26/11/2019 01:00;Milwaukee Bucks;Utah Jazz
26/11/2019 01:30;San Antonio Spurs;Los Angeles Lakers
26/11/2019 03:30;Golden State Warriors;Oklahoma City Thunder
27/11/2019 01:30;Dallas Mavericks;LA Clippers
27/11/2019 02:00;Denver Nuggets;Washington Wizards
28/11/2019 00:00;Boston Celtics;Brooklyn Nets
28/11/2019 00:00;Charlotte Hornets;Detroit Pistons
28/11/2019 00:00;Cleveland Cavaliers;Orlando Magic
28/11/2019 00:00;Indiana Pacers;Utah Jazz
28/11/2019 00:00;Philadelphia 76ers;Sacramento Kings
28/11/2019 00:30;Toronto Raptors;New York Knicks
28/11/2019 01:00;Houston Rockets;Miami Heat
28/11/2019 01:00;Memphis Grizzlies;LA Clippers
28/11/2019 01:00;Milwaukee Bucks;Atlanta Hawks
28/11/2019 01:30;San Antonio Spurs;Minnesota Timberwolves
28/11/2019 02:00;Phoenix Suns;Washington Wizards
28/11/2019 02:30;New Orleans Pelicans;Los Angeles Lakers
28/11/2019 03:00;Portland Trail Blazers;Oklahoma City Thunder
28/11/2019 03:30;Golden State Warriors;Chicago Bulls
29/11/2019 17:00;Brooklyn Nets;Boston Celtics
30/11/2019 00:00;Detroit Pistons;Charlotte Hornets
30/11/2019 00:00;Orlando Magic;Toronto Raptors
30/11/2019 00:30;Cleveland Cavaliers;Milwaukee Bucks
30/11/2019 00:30;New York Knicks;Philadelphia 76ers
30/11/2019 01:00;Indiana Pacers;Atlanta Hawks
30/11/2019 01:00;Miami Heat;Golden State Warriors
30/11/2019 01:00;Memphis Grizzlies;Utah Jazz
30/11/2019 01:00;Oklahoma City Thunder;New Orleans Pelicans
30/11/2019 01:30;San Antonio Spurs;LA Clippers
30/11/2019 02:00;Phoenix Suns;Dallas Mavericks
30/11/2019 03:00;Portland Trail Blazers;Chicago Bulls
30/11/2019 03:30;Los Angeles Lakers;Washington Wizards
30/11/2019 22:00;Sacramento Kings;Denver Nuggets
01/12/2019 00:00;Philadelphia 76ers;Indiana Pacers
01/12/2019 01:00;Houston Rockets;Atlanta Hawks
01/12/2019 01:00;Milwaukee Bucks;Charlotte Hornets
01/12/2019 20:00;Brooklyn Nets;Miami Heat
01/12/2019 20:30;New York Knicks;Boston Celtics
01/12/2019 20:30;Minnesota Timberwolves;Memphis Grizzlies
01/12/2019 21:00;Los Angeles Lakers;Dallas Mavericks
01/12/2019 22:00;Detroit Pistons;San Antonio Spurs
01/12/2019 22:00;New Orleans Pelicans;Oklahoma City Thunder
01/12/2019 23:00;Orlando Magic;Golden State Warriors
01/12/2019 23:00;Toronto Raptors;Utah Jazz
02/12/2019 03:30;LA Clippers;Washington Wizards
03/12/2019 00:00;Charlotte Hornets;Phoenix Suns
03/12/2019 00:00;Philadelphia 76ers;Utah Jazz
03/12/2019 00:30;Atlanta Hawks;Golden State Warriors
03/12/2019 01:00;Memphis Grizzlies;Indiana Pacers
03/12/2019 01:00;Milwaukee Bucks;New York Knicks
03/12/2019 03:00;Sacramento Kings;Chicago Bulls
04/12/2019 00:00;Cleveland Cavaliers;Detroit Pistons
04/12/2019 00:00;Washington Wizards;Orlando Magic
04/12/2019 00:30;Toronto Raptors;Miami Heat
04/12/2019 00:30;New Orleans Pelicans;Dallas Mavericks
04/12/2019 01:30;San Antonio Spurs;Houston Rockets
04/12/2019 02:00;Denver Nuggets;Los Angeles Lakers
04/12/2019 03:00;LA Clippers;Portland Trail Blazers
05/12/2019 00:00;Charlotte Hornets;Golden State Warriors
05/12/2019 00:00;Detroit Pistons;Milwaukee Bucks
05/12/2019 00:00;Orlando Magic;Phoenix Suns
05/12/2019 00:30;Atlanta Hawks;Brooklyn Nets
05/12/2019 00:30;Boston Celtics;Miami Heat
05/12/2019 01:00;Chicago Bulls;Memphis Grizzlies
05/12/2019 01:00;Oklahoma City Thunder;Indiana Pacers
05/12/2019 01:30;Dallas Mavericks;Minnesota Timberwolves
05/12/2019 02:00;Utah Jazz;Los Angeles Lakers
05/12/2019 03:00;Portland Trail Blazers;Sacramento Kings
06/12/2019 00:00;Washington Wizards;Philadelphia 76ers
06/12/2019 00:30;New York Knicks;Denver Nuggets
06/12/2019 00:30;Toronto Raptors;Houston Rockets
06/12/2019 01:00;New Orleans Pelicans;Phoenix Suns
07/12/2019 00:00;Charlotte Hornets;Brooklyn Nets
07/12/2019 00:00;Cleveland Cavaliers;Orlando Magic
07/12/2019 00:00;Detroit Pistons;Indiana Pacers
07/12/2019 01:00;Boston Celtics;Denver Nuggets
07/12/2019 01:00;Miami Heat;Washington Wizards
07/12/2019 01:00;Chicago Bulls;Golden State Warriors
07/12/2019 01:00;Oklahoma City Thunder;Minnesota Timberwolves
07/12/2019 01:30;Milwaukee Bucks;LA Clippers
07/12/2019 01:30;San Antonio Spurs;Sacramento Kings
07/12/2019 03:30;Portland Trail Blazers;Los Angeles Lakers
07/12/2019 19:00;Dallas Mavericks;New Orleans Pelicans
08/12/2019 00:30;New York Knicks;Indiana Pacers
08/12/2019 00:30;Philadelphia 76ers;Cleveland Cavaliers
08/12/2019 01:00;Houston Rockets;Phoenix Suns
08/12/2019 03:00;Utah Jazz;Memphis Grizzlies
08/12/2019 20:00;Brooklyn Nets;Denver Nuggets
08/12/2019 22:00;Charlotte Hornets;Atlanta Hawks
08/12/2019 23:00;Miami Heat;Chicago Bulls
08/12/2019 23:00;Philadelphia 76ers;Toronto Raptors
08/12/2019 23:00;Washington Wizards;LA Clippers
09/12/2019 00:00;Dallas Mavericks;Sacramento Kings
09/12/2019 02:00;Portland Trail Blazers;Oklahoma City Thunder
09/12/2019 02:30;Los Angeles Lakers;Minnesota Timberwolves
10/12/2019 00:00;Indiana Pacers;LA Clippers
10/12/2019 00:30;Boston Celtics;Cleveland Cavaliers
10/12/2019 01:00;Chicago Bulls;Toronto Raptors
10/12/2019 01:00;Houston Rockets;Sacramento Kings
10/12/2019 01:00;Milwaukee Bucks;Orlando Magic
10/12/2019 01:00;New Orleans Pelicans;Detroit Pistons
10/12/2019 02:00;Phoenix Suns;Minnesota Timberwolves
10/12/2019 02:00;Utah Jazz;Oklahoma City Thunder
10/12/2019 03:30;Golden State Warriors;Memphis Grizzlies
11/12/2019 00:00;Charlotte Hornets;Washington Wizards
11/12/2019 00:00;Philadelphia 76ers;Denver Nuggets
11/12/2019 01:00;Miami Heat;Atlanta Hawks
11/12/2019 03:00;Portland Trail Blazers;New York Knicks
12/12/2019 00:00;Cleveland Cavaliers;Houston Rockets
12/12/2019 00:00;Indiana Pacers;Boston Celtics
12/12/2019 00:00;Orlando Magic;Los Angeles Lakers
12/12/2019 00:00;Toronto Raptors;LA Clippers
12/12/2019 00:30;Brooklyn Nets;Charlotte Hornets
12/12/2019 01:00;Chicago Bulls;Atlanta Hawks
12/12/2019 01:00;Minnesota Timberwolves;Utah Jazz
12/12/2019 02:00;Phoenix Suns;Memphis Grizzlies
12/12/2019 02:30;Milwaukee Bucks;New Orleans Pelicans
12/12/2019 03:00;Sacramento Kings;Oklahoma City Thunder
12/12/2019 03:30;Golden State Warriors;New York Knicks
13/12/2019 01:00;Boston Celtics;Philadelphia 76ers
13/12/2019 01:30;San Antonio Spurs;Cleveland Cavaliers
13/12/2019 02:00;Detroit Pistons;Dallas Mavericks
13/12/2019 03:30;Denver Nuggets;Portland Trail Blazers
14/12/2019 00:00;Orlando Magic;Houston Rockets
14/12/2019 00:00;Philadelphia 76ers;New Orleans Pelicans
14/12/2019 00:30;Atlanta Hawks;Indiana Pacers
14/12/2019 01:00;Miami Heat;Los Angeles Lakers
14/12/2019 01:00;Chicago Bulls;Charlotte Hornets
14/12/2019 01:00;Memphis Grizzlies;Milwaukee Bucks
14/12/2019 01:00;Minnesota Timberwolves;LA Clippers
14/12/2019 03:00;Sacramento Kings;New York Knicks
14/12/2019 03:30;Utah Jazz;Golden State Warriors
14/12/2019 22:00;Phoenix Suns;San Antonio Spurs
15/12/2019 00:30;Toronto Raptors;Brooklyn Nets
15/12/2019 01:00;Chicago Bulls;LA Clippers
15/12/2019 01:00;Memphis Grizzlies;Washington Wizards
15/12/2019 01:30;Dallas Mavericks;Miami Heat
15/12/2019 01:30;Milwaukee Bucks;Cleveland Cavaliers
15/12/2019 02:00;Houston Rockets;Detroit Pistons
15/12/2019 02:00;Denver Nuggets;Oklahoma City Thunder
15/12/2019 20:30;New Orleans Pelicans;Orlando Magic
15/12/2019 22:00;Indiana Pacers;Charlotte Hornets
15/12/2019 23:00;Atlanta Hawks;Los Angeles Lakers
15/12/2019 23:00;Brooklyn Nets;Philadelphia 76ers
16/12/2019 01:00;Denver Nuggets;New York Knicks
16/12/2019 01:30;Golden State Warriors;Sacramento Kings
17/12/2019 00:00;Detroit Pistons;Washington Wizards
17/12/2019 00:30;Toronto Raptors;Cleveland Cavaliers
17/12/2019 01:00;Houston Rockets;San Antonio Spurs
17/12/2019 01:00;Memphis Grizzlies;Miami Heat
17/12/2019 01:00;Milwaukee Bucks;Dallas Mavericks
17/12/2019 01:00;Oklahoma City Thunder;Chicago Bulls
17/12/2019 02:00;Phoenix Suns;Portland Trail Blazers
18/12/2019 00:00;Charlotte Hornets;Sacramento Kings
18/12/2019 00:00;Indiana Pacers;Los Angeles Lakers
18/12/2019 00:30;New York Knicks;Atlanta Hawks
18/12/2019 01:00;New Orleans Pelicans;Brooklyn Nets
18/12/2019 02:00;Utah Jazz;Orlando Magic
18/12/2019 03:30;LA Clippers;Phoenix Suns
19/12/2019 00:00;Cleveland Cavaliers;Charlotte Hornets
19/12/2019 00:00;Detroit Pistons;Toronto Raptors
19/12/2019 00:00;Washington Wizards;Chicago Bulls
19/12/2019 00:30;Philadelphia 76ers;Miami Heat
19/12/2019 01:00;Minnesota Timberwolves;New Orleans Pelicans
19/12/2019 01:00;Oklahoma City Thunder;Memphis Grizzlies
19/12/2019 01:30;Dallas Mavericks;Boston Celtics
19/12/2019 02:00;Denver Nuggets;Orlando Magic
19/12/2019 03:00;Portland Trail Blazers;Golden State Warriors
20/12/2019 00:30;Atlanta Hawks;Utah Jazz
20/12/2019 01:00;Milwaukee Bucks;Los Angeles Lakers
20/12/2019 01:30;San Antonio Spurs;Brooklyn Nets
20/12/2019 03:30;LA Clippers;Houston Rockets
21/12/2019 00:00;Cleveland Cavaliers;Memphis Grizzlies
21/12/2019 00:00;Indiana Pacers;Sacramento Kings
21/12/2019 00:30;Boston Celtics;Detroit Pistons
21/12/2019 00:30;Toronto Raptors;Washington Wizards
21/12/2019 01:00;Miami Heat;New York Knicks
21/12/2019 01:00;Philadelphia 76ers;Dallas Mavericks
21/12/2019 01:00;Oklahoma City Thunder;Phoenix Suns
21/12/2019 02:00;Denver Nuggets;Minnesota Timberwolves
21/12/2019 03:00;Portland Trail Blazers;Orlando Magic
21/12/2019 03:30;Golden State Warriors;New Orleans Pelicans
21/12/2019 22:00;Charlotte Hornets;Utah Jazz
21/12/2019 23:00;Brooklyn Nets;Atlanta Hawks
22/12/2019 00:00;Detroit Pistons;Chicago Bulls
22/12/2019 00:00;Philadelphia 76ers;Washington Wizards
22/12/2019 00:30;New York Knicks;Milwaukee Bucks
22/12/2019 01:00;Memphis Grizzlies;Sacramento Kings
22/12/2019 01:30;San Antonio Spurs;LA Clippers
22/12/2019 02:00;Phoenix Suns;Houston Rockets
22/12/2019 03:00;Portland Trail Blazers;Minnesota Timberwolves
22/12/2019 20:30;Toronto Raptors;Dallas Mavericks
22/12/2019 23:00;Boston Celtics;Charlotte Hornets
23/12/2019 00:00;Milwaukee Bucks;Indiana Pacers
23/12/2019 00:00;Oklahoma City Thunder;LA Clippers
23/12/2019 02:30;Los Angeles Lakers;Denver Nuggets
24/12/2019 00:00;Cleveland Cavaliers;Atlanta Hawks
24/12/2019 00:00;Detroit Pistons;Philadelphia 76ers
24/12/2019 00:00;Indiana Pacers;Toronto Raptors
24/12/2019 00:00;New York Knicks;Washington Wizards
24/12/2019 00:00;Orlando Magic;Chicago Bulls
24/12/2019 00:30;Miami Heat;Utah Jazz
24/12/2019 01:00;Memphis Grizzlies;San Antonio Spurs
24/12/2019 02:00;Phoenix Suns;Denver Nuggets
24/12/2019 03:00;Portland Trail Blazers;New Orleans Pelicans
24/12/2019 03:00;Sacramento Kings;Houston Rockets
24/12/2019 03:30;Golden State Warriors;Minnesota Timberwolves
25/12/2019 17:00;Toronto Raptors;Boston Celtics
25/12/2019 19:30;Philadelphia 76ers;Milwaukee Bucks
25/12/2019 22:00;Golden State Warriors;Houston Rockets
26/12/2019 01:00;Los Angeles Lakers;LA Clippers
26/12/2019 03:30;Denver Nuggets;New Orleans Pelicans
27/12/2019 00:00;Detroit Pistons;Washington Wizards
27/12/2019 01:00;Brooklyn Nets;New York Knicks
27/12/2019 01:00;Oklahoma City Thunder;Memphis Grizzlies
27/12/2019 01:30;Dallas Mavericks;San Antonio Spurs
27/12/2019 03:00;Sacramento Kings;Minnesota Timberwolves
27/12/2019 03:30;Utah Jazz;Portland Trail Blazers
27/12/2019 21:00;Boston Celtics;Cleveland Cavaliers
28/12/2019 00:00;Charlotte Hornets;Oklahoma City Thunder
28/12/2019 00:00;Orlando Magic;Philadelphia 76ers
28/12/2019 00:30;Atlanta Hawks;Milwaukee Bucks
28/12/2019 01:00;Miami Heat;Indiana Pacers
28/12/2019 03:30;Golden State Warriors;Phoenix Suns
28/12/2019 22:00;Denver Nuggets;Memphis Grizzlies
29/12/2019 00:00;Boston Celtics;Toronto Raptors
29/12/2019 00:00;New Orleans Pelicans;Indiana Pacers
29/12/2019 01:00;Miami Heat;Philadelphia 76ers
29/12/2019 01:00;Washington Wizards;New York Knicks
29/12/2019 01:00;Chicago Bulls;Atlanta Hawks
29/12/2019 01:00;Houston Rockets;Brooklyn Nets
29/12/2019 01:00;Minnesota Timberwolves;Cleveland Cavaliers
29/12/2019 01:30;Milwaukee Bucks;Orlando Magic
29/12/2019 01:30;San Antonio Spurs;Detroit Pistons
29/12/2019 01:30;Golden State Warriors;Dallas Mavericks
29/12/2019 02:00;Sacramento Kings;Phoenix Suns
29/12/2019 03:00;Portland Trail Blazers;Los Angeles Lakers
29/12/2019 03:30;LA Clippers;Utah Jazz
29/12/2019 23:00;Toronto Raptors;Oklahoma City Thunder
30/12/2019 01:00;Memphis Grizzlies;Charlotte Hornets
30/12/2019 01:00;New Orleans Pelicans;Houston Rockets
30/12/2019 01:00;Denver Nuggets;Sacramento Kings
30/12/2019 02:30;Los Angeles Lakers;Dallas Mavericks
31/12/2019 00:00;Orlando Magic;Atlanta Hawks
31/12/2019 00:00;Washington Wizards;Miami Heat
31/12/2019 01:00;Chicago Bulls;Milwaukee Bucks
31/12/2019 01:00;Minnesota Timberwolves;Brooklyn Nets
31/12/2019 02:00;Utah Jazz;Detroit Pistons
31/12/2019 03:00;Portland Trail Blazers;Phoenix Suns
31/12/2019 20:00;Charlotte Hornets;Boston Celtics
31/12/2019 20:00;Indiana Pacers;Philadelphia 76ers
31/12/2019 22:00;Sacramento Kings;LA Clippers
01/01/2020 00:00;Toronto Raptors;Cleveland Cavaliers
01/01/2020 00:00;Houston Rockets;Denver Nuggets
01/01/2020 00:00;San Antonio Spurs;Golden State Warriors
01/01/2020 01:00;Oklahoma City Thunder;Dallas Mavericks
01/01/2020 23:00;Washington Wizards;Orlando Magic
02/01/2020 00:30;New York Knicks;Portland Trail Blazers
02/01/2020 01:00;Milwaukee Bucks;Minnesota Timberwolves
02/01/2020 03:30;Los Angeles Lakers;Phoenix Suns
03/01/2020 00:00;Cleveland Cavaliers;Charlotte Hornets
03/01/2020 00:00;Indiana Pacers;Denver Nuggets
03/01/2020 00:30;Miami Heat;Toronto Raptors
03/01/2020 01:00;Chicago Bulls;Utah Jazz
03/01/2020 01:00;Minnesota Timberwolves;Golden State Warriors
03/01/2020 01:30;Dallas Mavericks;Brooklyn Nets
03/01/2020 01:30;San Antonio Spurs;Oklahoma City Thunder
03/01/2020 03:00;Sacramento Kings;Memphis Grizzlies
03/01/2020 03:30;LA Clippers;Detroit Pistons
04/01/2020 00:00;Boston Celtics;Atlanta Hawks
04/01/2020 00:00;Orlando Magic;Miami Heat
04/01/2020 00:00;Washington Wizards;Portland Trail Blazers
04/01/2020 01:00;Houston Rockets;Philadelphia 76ers
04/01/2020 02:00;Phoenix Suns;New York Knicks
04/01/2020 03:30;Los Angeles Lakers;New Orleans Pelicans
04/01/2020 20:30;LA Clippers;Memphis Grizzlies
04/01/2020 23:00;Brooklyn Nets;Toronto Raptors
05/01/2020 00:00;Orlando Magic;Utah Jazz
05/01/2020 00:30;Atlanta Hawks;Indiana Pacers
05/01/2020 00:30;Cleveland Cavaliers;Oklahoma City Thunder
05/01/2020 01:00;Washington Wizards;Denver Nuggets
05/01/2020 01:00;Chicago Bulls;Boston Celtics
05/01/2020 01:30;Dallas Mavericks;Charlotte Hornets
05/01/2020 01:30;Milwaukee Bucks;San Antonio Spurs
05/01/2020 01:30;Golden State Warriors;Detroit Pistons
05/01/2020 03:00;Sacramento Kings;New Orleans Pelicans
05/01/2020 20:30;LA Clippers;New York Knicks
05/01/2020 23:00;Miami Heat;Portland Trail Blazers
06/01/2020 00:30;Cleveland Cavaliers;Minnesota Timberwolves
06/01/2020 01:00;Phoenix Suns;Memphis Grizzlies
06/01/2020 03:00;Los Angeles Lakers;Detroit Pistons
07/01/2020 00:00;Charlotte Hornets;Indiana Pacers
07/01/2020 00:00;Orlando Magic;Brooklyn Nets
07/01/2020 00:00;Philadelphia 76ers;Oklahoma City Thunder
07/01/2020 00:00;Washington Wizards;Boston Celtics
07/01/2020 00:30;Atlanta Hawks;Denver Nuggets
07/01/2020 01:00;New Orleans Pelicans;Utah Jazz
07/01/2020 01:30;Dallas Mavericks;Chicago Bulls
07/01/2020 01:30;San Antonio Spurs;Milwaukee Bucks
07/01/2020 03:00;Sacramento Kings;Golden State Warriors
08/01/2020 00:00;Cleveland Cavaliers;Detroit Pistons
08/01/2020 00:00;Toronto Raptors;Portland Trail Blazers
08/01/2020 00:30;Brooklyn Nets;Oklahoma City Thunder
08/01/2020 01:00;Memphis Grizzlies;Minnesota Timberwolves
08/01/2020 02:00;Phoenix Suns;Sacramento Kings
08/01/2020 03:30;Los Angeles Lakers;New York Knicks
09/01/2020 00:00;Boston Celtics;San Antonio Spurs
09/01/2020 00:00;Charlotte Hornets;Toronto Raptors
09/01/2020 00:00;Indiana Pacers;Miami Heat
09/01/2020 00:00;Orlando Magic;Washington Wizards
09/01/2020 00:30;Atlanta Hawks;Houston Rockets
09/01/2020 00:30;Dallas Mavericks;Denver Nuggets
09/01/2020 01:00;New Orleans Pelicans;Chicago Bulls
09/01/2020 02:00;Utah Jazz;New York Knicks
09/01/2020 03:00;Golden State Warriors;Milwaukee Bucks
10/01/2020 00:00;Detroit Pistons;Cleveland Cavaliers
10/01/2020 00:00;Philadelphia 76ers;Boston Celtics
10/01/2020 01:00;Minnesota Timberwolves;Portland Trail Blazers
10/01/2020 02:30;Oklahoma City Thunder;Houston Rockets
11/01/2020 00:00;Washington Wizards;Atlanta Hawks
11/01/2020 00:30;Brooklyn Nets;Miami Heat
11/01/2020 01:00;New York Knicks;New Orleans Pelicans
11/01/2020 01:00;Chicago Bulls;Indiana Pacers
11/01/2020 01:00;Memphis Grizzlies;San Antonio Spurs
11/01/2020 01:30;Dallas Mavericks;Los Angeles Lakers
11/01/2020 02:00;Phoenix Suns;Orlando Magic
11/01/2020 02:00;Utah Jazz;Charlotte Hornets
11/01/2020 03:00;Sacramento Kings;Milwaukee Bucks
11/01/2020 03:30;LA Clippers;Golden State Warriors
11/01/2020 22:00;Houston Rockets;Minnesota Timberwolves
12/01/2020 00:00;Boston Celtics;New Orleans Pelicans
12/01/2020 00:00;Detroit Pistons;Chicago Bulls
12/01/2020 01:00;Oklahoma City Thunder;Los Angeles Lakers
12/01/2020 01:30;Dallas Mavericks;Philadelphia 76ers
12/01/2020 02:00;Denver Nuggets;Cleveland Cavaliers
12/01/2020 03:00;Portland Trail Blazers;Milwaukee Bucks
12/01/2020 20:30;New York Knicks;Miami Heat
12/01/2020 20:30;Washington Wizards;Utah Jazz
12/01/2020 23:00;Brooklyn Nets;Atlanta Hawks
12/01/2020 23:00;Toronto Raptors;San Antonio Spurs
12/01/2020 23:00;Memphis Grizzlies;Golden State Warriors
13/01/2020 01:00;Denver Nuggets;LA Clippers
13/01/2020 01:00;Phoenix Suns;Charlotte Hornets
14/01/2020 00:00;Detroit Pistons;New Orleans Pelicans
14/01/2020 00:00;Indiana Pacers;Philadelphia 76ers
14/01/2020 00:30;Boston Celtics;Chicago Bulls
14/01/2020 01:00;Minnesota Timberwolves;Oklahoma City Thunder
14/01/2020 03:00;Portland Trail Blazers;Charlotte Hornets
14/01/2020 03:00;Sacramento Kings;Orlando Magic
14/01/2020 03:30;Los Angeles Lakers;Cleveland Cavaliers
15/01/2020 00:30;Atlanta Hawks;Phoenix Suns
15/01/2020 00:30;Brooklyn Nets;Utah Jazz
15/01/2020 01:00;Memphis Grizzlies;Houston Rockets
15/01/2020 01:00;Milwaukee Bucks;New York Knicks
15/01/2020 03:30;Golden State Warriors;Dallas Mavericks
15/01/2020 03:30;LA Clippers;Cleveland Cavaliers
16/01/2020 00:00;Boston Celtics;Detroit Pistons
16/01/2020 00:00;Philadelphia 76ers;Brooklyn Nets
16/01/2020 00:30;Miami Heat;San Antonio Spurs
16/01/2020 01:00;Chicago Bulls;Washington Wizards
16/01/2020 01:00;Minnesota Timberwolves;Indiana Pacers
16/01/2020 01:00;Oklahoma City Thunder;Toronto Raptors
16/01/2020 02:00;Denver Nuggets;Charlotte Hornets
16/01/2020 02:30;Houston Rockets;Portland Trail Blazers
16/01/2020 03:00;Sacramento Kings;Dallas Mavericks
16/01/2020 03:30;Los Angeles Lakers;Orlando Magic
17/01/2020 00:30;New York Knicks;Phoenix Suns
17/01/2020 01:00;Milwaukee Bucks;Boston Celtics
17/01/2020 01:00;New Orleans Pelicans;Utah Jazz
17/01/2020 03:30;Golden State Warriors;Denver Nuggets
17/01/2020 03:30;LA Clippers;Orlando Magic
18/01/2020 00:00;Indiana Pacers;Minnesota Timberwolves
18/01/2020 00:00;Philadelphia 76ers;Chicago Bulls
18/01/2020 00:00;Toronto Raptors;Washington Wizards
18/01/2020 01:00;Memphis Grizzlies;Cleveland Cavaliers
18/01/2020 01:00;Oklahoma City Thunder;Miami Heat
18/01/2020 01:30;San Antonio Spurs;Atlanta Hawks
18/01/2020 02:30;Dallas Mavericks;Portland Trail Blazers
18/01/2020 20:30;New Orleans Pelicans;LA Clippers
18/01/2020 23:00;Brooklyn Nets;Milwaukee Bucks
19/01/2020 00:00;Boston Celtics;Phoenix Suns
19/01/2020 00:30;Atlanta Hawks;Detroit Pistons
19/01/2020 00:30;New York Knicks;Philadelphia 76ers
19/01/2020 01:00;Chicago Bulls;Cleveland Cavaliers
19/01/2020 01:00;Minnesota Timberwolves;Toronto Raptors
19/01/2020 01:30;Houston Rockets;Los Angeles Lakers
19/01/2020 01:30;Golden State Warriors;Orlando Magic
19/01/2020 02:00;Oklahoma City Thunder;Portland Trail Blazers
19/01/2020 02:00;Utah Jazz;Sacramento Kings
19/01/2020 20:00;San Antonio Spurs;Miami Heat
20/01/2020 01:00;Denver Nuggets;Indiana Pacers
20/01/2020 19:00;Washington Wizards;Detroit Pistons
20/01/2020 19:30;Atlanta Hawks;Toronto Raptors
20/01/2020 20:00;Brooklyn Nets;Philadelphia 76ers
20/01/2020 22:00;Charlotte Hornets;Orlando Magic
20/01/2020 22:00;Cleveland Cavaliers;New York Knicks
20/01/2020 22:00;Miami Heat;Sacramento Kings
20/01/2020 22:00;Houston Rockets;Oklahoma City Thunder
20/01/2020 22:00;Memphis Grizzlies;New Orleans Pelicans
20/01/2020 22:00;Milwaukee Bucks;Chicago Bulls
21/01/2020 00:30;Boston Celtics;Los Angeles Lakers
21/01/2020 01:00;Minnesota Timberwolves;Denver Nuggets
21/01/2020 02:00;Phoenix Suns;San Antonio Spurs
21/01/2020 02:00;Utah Jazz;Indiana Pacers
21/01/2020 03:00;Portland Trail Blazers;Golden State Warriors
22/01/2020 01:30;Dallas Mavericks;LA Clippers
23/01/2020 00:00;Detroit Pistons;Sacramento Kings
23/01/2020 00:00;Orlando Magic;Oklahoma City Thunder
23/01/2020 00:30;Atlanta Hawks;LA Clippers
23/01/2020 00:30;Boston Celtics;Memphis Grizzlies
23/01/2020 00:30;Miami Heat;Washington Wizards
23/01/2020 00:30;New York Knicks;Los Angeles Lakers
23/01/2020 00:30;Toronto Raptors;Philadelphia 76ers
23/01/2020 01:00;Chicago Bulls;Minnesota Timberwolves
23/01/2020 01:00;Houston Rockets;Denver Nuggets
23/01/2020 01:00;New Orleans Pelicans;San Antonio Spurs
23/01/2020 02:00;Phoenix Suns;Indiana Pacers
23/01/2020 03:00;Golden State Warriors;Utah Jazz
24/01/2020 00:00;Cleveland Cavaliers;Washington Wizards
24/01/2020 01:00;Brooklyn Nets;Los Angeles Lakers
24/01/2020 03:30;Portland Trail Blazers;Dallas Mavericks
24/01/2020 20:00;Charlotte Hornets;Milwaukee Bucks
25/01/2020 00:00;Detroit Pistons;Memphis Grizzlies
25/01/2020 00:00;Orlando Magic;Boston Celtics
25/01/2020 00:30;New York Knicks;Toronto Raptors
25/01/2020 01:00;Miami Heat;LA Clippers
25/01/2020 01:00;Chicago Bulls;Sacramento Kings
25/01/2020 01:00;Minnesota Timberwolves;Houston Rockets
25/01/2020 01:00;New Orleans Pelicans;Denver Nuggets
25/01/2020 01:00;Oklahoma City Thunder;Atlanta Hawks
25/01/2020 01:30;San Antonio Spurs;Phoenix Suns
25/01/2020 03:30;Golden State Warriors;Indiana Pacers
25/01/2020 22:00;Utah Jazz;Dallas Mavericks
26/01/2020 00:00;Detroit Pistons;Brooklyn Nets
26/01/2020 01:00;Cleveland Cavaliers;Chicago Bulls
26/01/2020 01:00;Minnesota Timberwolves;Oklahoma City Thunder
26/01/2020 01:30;Philadelphia 76ers;Los Angeles Lakers
26/01/2020 20:30;Denver Nuggets;Houston Rockets
26/01/2020 21:00;San Antonio Spurs;Toronto Raptors
26/01/2020 23:00;Atlanta Hawks;Washington Wizards
26/01/2020 23:00;New York Knicks;Brooklyn Nets
26/01/2020 23:00;Orlando Magic;LA Clippers
26/01/2020 23:00;Memphis Grizzlies;Phoenix Suns
26/01/2020 23:00;New Orleans Pelicans;Boston Celtics
27/01/2020 02:00;Portland Trail Blazers;Indiana Pacers
28/01/2020 00:00;Detroit Pistons;Cleveland Cavaliers
28/01/2020 00:30;Miami Heat;Orlando Magic
28/01/2020 01:00;Chicago Bulls;San Antonio Spurs
28/01/2020 01:00;Minnesota Timberwolves;Sacramento Kings
28/01/2020 01:00;Oklahoma City Thunder;Dallas Mavericks
28/01/2020 02:00;Utah Jazz;Houston Rockets
29/01/2020 00:00;Charlotte Hornets;New York Knicks
29/01/2020 00:30;Cleveland Cavaliers;New Orleans Pelicans
29/01/2020 00:30;Miami Heat;Boston Celtics
29/01/2020 00:30;Philadelphia 76ers;Golden State Warriors
29/01/2020 00:30;Toronto Raptors;Atlanta Hawks
29/01/2020 01:00;Memphis Grizzlies;Denver Nuggets
29/01/2020 01:00;Milwaukee Bucks;Washington Wizards
29/01/2020 01:30;Dallas Mavericks;Phoenix Suns
29/01/2020 03:00;Los Angeles Lakers;LA Clippers
30/01/2020 00:00;Indiana Pacers;Chicago Bulls
30/01/2020 00:30;Brooklyn Nets;Detroit Pistons
30/01/2020 00:30;New York Knicks;Memphis Grizzlies
30/01/2020 01:30;San Antonio Spurs;Utah Jazz
30/01/2020 03:00;Portland Trail Blazers;Houston Rockets
30/01/2020 03:00;Sacramento Kings;Oklahoma City Thunder
31/01/2020 00:00;Cleveland Cavaliers;Toronto Raptors
31/01/2020 00:00;Washington Wizards;Charlotte Hornets
31/01/2020 00:30;Atlanta Hawks;Philadelphia 76ers
31/01/2020 01:00;Boston Celtics;Golden State Warriors
31/01/2020 03:30;Denver Nuggets;Utah Jazz
31/01/2020 03:30;LA Clippers;Sacramento Kings
01/02/2020 00:00;Detroit Pistons;Toronto Raptors
01/02/2020 00:30;Brooklyn Nets;Chicago Bulls
01/02/2020 01:00;Houston Rockets;Dallas Mavericks
01/02/2020 01:00;New Orleans Pelicans;Memphis Grizzlies
01/02/2020 02:00;Milwaukee Bucks;Denver Nuggets
01/02/2020 02:00;Phoenix Suns;Oklahoma City Thunder
01/02/2020 03:30;Los Angeles Lakers;Portland Trail Blazers
01/02/2020 20:30;LA Clippers;Minnesota Timberwolves
02/02/2020 00:00;Indiana Pacers;New York Knicks
02/02/2020 00:00;Orlando Magic;Miami Heat
02/02/2020 01:00;Cleveland Cavaliers;Golden State Warriors
02/02/2020 01:00;Washington Wizards;Brooklyn Nets
02/02/2020 01:30;Boston Celtics;Philadelphia 76ers
02/02/2020 01:30;Dallas Mavericks;Atlanta Hawks
02/02/2020 02:00;San Antonio Spurs;Charlotte Hornets
02/02/2020 03:00;Portland Trail Blazers;Utah Jazz
02/02/2020 03:00;Sacramento Kings;Los Angeles Lakers
02/02/2020 17:30;Detroit Pistons;Denver Nuggets
02/02/2020 19:00;Houston Rockets;New Orleans Pelicans
02/02/2020 19:00;Milwaukee Bucks;Phoenix Suns
02/02/2020 20:00;Toronto Raptors;Chicago Bulls
04/02/2020 00:00;Charlotte Hornets;Orlando Magic
04/02/2020 00:00;Cleveland Cavaliers;New York Knicks
04/02/2020 00:00;Indiana Pacers;Dallas Mavericks
04/02/2020 00:00;Washington Wizards;Golden State Warriors
04/02/2020 00:30;Atlanta Hawks;Boston Celtics
04/02/2020 00:30;Brooklyn Nets;Phoenix Suns
04/02/2020 00:30;Miami Heat;Philadelphia 76ers
04/02/2020 01:00;Memphis Grizzlies;Detroit Pistons
04/02/2020 03:00;Sacramento Kings;Minnesota Timberwolves
04/02/2020 03:30;LA Clippers;San Antonio Spurs
05/02/2020 00:30;New Orleans Pelicans;Milwaukee Bucks
05/02/2020 01:00;Houston Rockets;Charlotte Hornets
05/02/2020 03:00;Denver Nuggets;Portland Trail Blazers
05/02/2020 03:30;Los Angeles Lakers;San Antonio Spurs
06/02/2020 00:00;Detroit Pistons;Phoenix Suns
06/02/2020 00:30;Boston Celtics;Orlando Magic
06/02/2020 00:30;Brooklyn Nets;Golden State Warriors
06/02/2020 00:30;Toronto Raptors;Indiana Pacers
06/02/2020 01:00;Minnesota Timberwolves;Atlanta Hawks
06/02/2020 01:00;Oklahoma City Thunder;Cleveland Cavaliers
06/02/2020 01:30;Dallas Mavericks;Memphis Grizzlies
06/02/2020 03:00;Utah Jazz;Denver Nuggets
06/02/2020 03:30;LA Clippers;Miami Heat
07/02/2020 00:30;New York Knicks;Orlando Magic
07/02/2020 01:00;Chicago Bulls;New Orleans Pelicans
07/02/2020 01:00;Milwaukee Bucks;Philadelphia 76ers
07/02/2020 03:00;Portland Trail Blazers;San Antonio Spurs
07/02/2020 03:30;Los Angeles Lakers;Houston Rockets
08/02/2020 00:00;Philadelphia 76ers;Memphis Grizzlies
08/02/2020 00:00;Washington Wizards;Dallas Mavericks
08/02/2020 00:30;Boston Celtics;Atlanta Hawks
08/02/2020 01:00;Indiana Pacers;Toronto Raptors
08/02/2020 01:00;Oklahoma City Thunder;Detroit Pistons
08/02/2020 02:00;Phoenix Suns;Houston Rockets
08/02/2020 03:00;Sacramento Kings;Miami Heat
08/02/2020 03:30;Utah Jazz;Portland Trail Blazers
08/02/2020 22:00;Orlando Magic;Milwaukee Bucks
09/02/2020 00:00;Charlotte Hornets;Dallas Mavericks
09/02/2020 00:00;Detroit Pistons;New York Knicks
09/02/2020 00:30;Indiana Pacers;New Orleans Pelicans
09/02/2020 00:30;Toronto Raptors;Brooklyn Nets
09/02/2020 01:00;Minnesota Timberwolves;LA Clippers
09/02/2020 01:30;Golden State Warriors;Los Angeles Lakers
09/02/2020 02:00;Phoenix Suns;Denver Nuggets
09/02/2020 03:00;Sacramento Kings;San Antonio Spurs
09/02/2020 20:30;Oklahoma City Thunder;Boston Celtics
09/02/2020 23:00;Atlanta Hawks;New York Knicks
09/02/2020 23:00;Philadelphia 76ers;Chicago Bulls
09/02/2020 23:00;Washington Wizards;Memphis Grizzlies
10/02/2020 00:00;Houston Rockets;Utah Jazz
10/02/2020 00:30;Cleveland Cavaliers;LA Clippers
10/02/2020 02:00;Portland Trail Blazers;Miami Heat
11/02/2020 00:00;Detroit Pistons;Charlotte Hornets
11/02/2020 00:00;Indiana Pacers;Brooklyn Nets
11/02/2020 00:00;Orlando Magic;Atlanta Hawks
11/02/2020 00:30;Toronto Raptors;Minnesota Timberwolves
11/02/2020 01:00;Milwaukee Bucks;Sacramento Kings
11/02/2020 01:30;Dallas Mavericks;Utah Jazz
11/02/2020 02:00;Denver Nuggets;San Antonio Spurs
11/02/2020 03:30;Golden State Warriors;Miami Heat
11/02/2020 03:30;Los Angeles Lakers;Phoenix Suns
12/02/2020 00:00;Philadelphia 76ers;LA Clippers
12/02/2020 00:00;Washington Wizards;Chicago Bulls
12/02/2020 01:00;New Orleans Pelicans;Portland Trail Blazers
12/02/2020 01:00;Oklahoma City Thunder;San Antonio Spurs
12/02/2020 02:30;Houston Rockets;Boston Celtics
13/02/2020 00:00;Cleveland Cavaliers;Atlanta Hawks
13/02/2020 00:00;Orlando Magic;Detroit Pistons
13/02/2020 00:30;Brooklyn Nets;Toronto Raptors
13/02/2020 00:30;Indiana Pacers;Milwaukee Bucks
13/02/2020 00:30;New York Knicks;Washington Wizards
13/02/2020 01:00;Memphis Grizzlies;Portland Trail Blazers
13/02/2020 01:00;Minnesota Timberwolves;Charlotte Hornets
13/02/2020 01:30;Dallas Mavericks;Sacramento Kings
13/02/2020 02:00;Phoenix Suns;Golden State Warriors
13/02/2020 02:00;Utah Jazz;Miami Heat
13/02/2020 03:00;Denver Nuggets;Los Angeles Lakers
14/02/2020 01:00;Boston Celtics;LA Clippers
14/02/2020 01:00;New Orleans Pelicans;Oklahoma City Thunder
21/02/2020 00:00;Detroit Pistons;Milwaukee Bucks
21/02/2020 00:30;Atlanta Hawks;Miami Heat
21/02/2020 01:00;Philadelphia 76ers;Brooklyn Nets
21/02/2020 01:00;Chicago Bulls;Charlotte Hornets
21/02/2020 03:00;Sacramento Kings;Memphis Grizzlies
21/02/2020 03:30;Golden State Warriors;Houston Rockets
22/02/2020 00:00;Orlando Magic;Dallas Mavericks
22/02/2020 00:00;Washington Wizards;Cleveland Cavaliers
22/02/2020 00:30;New York Knicks;Indiana Pacers
22/02/2020 00:30;Toronto Raptors;Phoenix Suns
22/02/2020 01:00;Minnesota Timberwolves;Boston Celtics
22/02/2020 01:00;Oklahoma City Thunder;Denver Nuggets
22/02/2020 02:00;Utah Jazz;San Antonio Spurs
22/02/2020 03:30;Los Angeles Lakers;Memphis Grizzlies
22/02/2020 03:30;Portland Trail Blazers;New Orleans Pelicans
22/02/2020 20:30;LA Clippers;Sacramento Kings
23/02/2020 00:00;Charlotte Hornets;Brooklyn Nets
23/02/2020 00:30;Atlanta Hawks;Dallas Mavericks
23/02/2020 01:00;Miami Heat;Cleveland Cavaliers
23/02/2020 01:00;Chicago Bulls;Phoenix Suns
23/02/2020 01:30;Milwaukee Bucks;Philadelphia 76ers
23/02/2020 02:00;Utah Jazz;Houston Rockets
23/02/2020 20:30;Los Angeles Lakers;Boston Celtics
23/02/2020 23:00;Toronto Raptors;Indiana Pacers
23/02/2020 23:00;Denver Nuggets;Minnesota Timberwolves
24/02/2020 00:00;Chicago Bulls;Washington Wizards
24/02/2020 00:00;Oklahoma City Thunder;San Antonio Spurs
24/02/2020 01:30;Golden State Warriors;New Orleans Pelicans
24/02/2020 02:00;Portland Trail Blazers;Detroit Pistons
25/02/2020 00:00;Cleveland Cavaliers;Miami Heat
25/02/2020 00:00;Philadelphia 76ers;Atlanta Hawks
25/02/2020 00:00;Washington Wizards;Milwaukee Bucks
25/02/2020 00:30;Brooklyn Nets;Orlando Magic
25/02/2020 01:00;Houston Rockets;New York Knicks
25/02/2020 01:30;Dallas Mavericks;Minnesota Timberwolves
25/02/2020 02:00;Utah Jazz;Phoenix Suns
25/02/2020 03:30;LA Clippers;Memphis Grizzlies
26/02/2020 00:00;Indiana Pacers;Charlotte Hornets
26/02/2020 00:30;Toronto Raptors;Milwaukee Bucks
26/02/2020 01:00;Chicago Bulls;Oklahoma City Thunder
26/02/2020 02:00;Denver Nuggets;Detroit Pistons
26/02/2020 03:00;Los Angeles Lakers;New Orleans Pelicans
26/02/2020 03:00;Portland Trail Blazers;Boston Celtics
26/02/2020 03:30;Golden State Warriors;Sacramento Kings
27/02/2020 00:00;Charlotte Hornets;New York Knicks
27/02/2020 00:00;Cleveland Cavaliers;Philadelphia 76ers
27/02/2020 00:00;Washington Wizards;Brooklyn Nets
27/02/2020 00:30;Atlanta Hawks;Orlando Magic
27/02/2020 00:30;Miami Heat;Minnesota Timberwolves
27/02/2020 00:30;San Antonio Spurs;Dallas Mavericks
27/02/2020 01:00;Houston Rockets;Memphis Grizzlies
27/02/2020 02:00;Phoenix Suns;LA Clippers
27/02/2020 03:00;Utah Jazz;Boston Celtics
28/02/2020 00:00;Philadelphia 76ers;New York Knicks
28/02/2020 01:00;Indiana Pacers;Portland Trail Blazers
28/02/2020 01:00;Oklahoma City Thunder;Sacramento Kings
28/02/2020 03:30;Golden State Warriors;Los Angeles Lakers
29/02/2020 00:00;Orlando Magic;Minnesota Timberwolves
29/02/2020 00:30;Atlanta Hawks;Brooklyn Nets
29/02/2020 00:30;Toronto Raptors;Charlotte Hornets
29/02/2020 01:00;Miami Heat;Dallas Mavericks
29/02/2020 01:00;Memphis Grizzlies;Sacramento Kings
29/02/2020 01:00;Milwaukee Bucks;Oklahoma City Thunder
29/02/2020 01:00;New Orleans Pelicans;Cleveland Cavaliers
29/02/2020 02:00;Phoenix Suns;Detroit Pistons
29/02/2020 02:00;Utah Jazz;Washington Wizards
29/02/2020 03:30;LA Clippers;Denver Nuggets
29/02/2020 22:00;New York Knicks;Chicago Bulls
01/03/2020 00:30;Atlanta Hawks;Portland Trail Blazers
01/03/2020 00:30;Miami Heat;Brooklyn Nets
01/03/2020 01:00;Cleveland Cavaliers;Indiana Pacers
01/03/2020 01:00;Memphis Grizzlies;Los Angeles Lakers
01/03/2020 01:30;Boston Celtics;Houston Rockets
01/03/2020 01:30;San Antonio Spurs;Orlando Magic
01/03/2020 02:00;Phoenix Suns;Golden State Warriors
01/03/2020 18:00;Charlotte Hornets;Milwaukee Bucks
01/03/2020 20:30;Minnesota Timberwolves;Dallas Mavericks
01/03/2020 20:30;LA Clippers;Philadelphia 76ers
01/03/2020 23:00;Denver Nuggets;Toronto Raptors
01/03/2020 23:00;Sacramento Kings;Detroit Pistons
02/03/2020 01:00;New Orleans Pelicans;Los Angeles Lakers
02/03/2020 01:30;Golden State Warriors;Washington Wizards
03/03/2020 00:00;Cleveland Cavaliers;Utah Jazz
03/03/2020 00:00;New York Knicks;Houston Rockets
03/03/2020 00:00;Orlando Magic;Portland Trail Blazers
03/03/2020 00:30;Atlanta Hawks;Memphis Grizzlies
03/03/2020 00:30;Miami Heat;Milwaukee Bucks
03/03/2020 01:00;Chicago Bulls;Dallas Mavericks
03/03/2020 01:30;San Antonio Spurs;Indiana Pacers
04/03/2020 00:00;Charlotte Hornets;San Antonio Spurs
04/03/2020 00:30;Boston Celtics;Brooklyn Nets
04/03/2020 01:00;New Orleans Pelicans;Minnesota Timberwolves
04/03/2020 01:00;Oklahoma City Thunder;LA Clippers
04/03/2020 02:00;Denver Nuggets;Golden State Warriors
04/03/2020 02:00;Phoenix Suns;Toronto Raptors
04/03/2020 03:00;Los Angeles Lakers;Philadelphia 76ers
04/03/2020 03:00;Sacramento Kings;Washington Wizards
05/03/2020 00:00;Cleveland Cavaliers;Boston Celtics
05/03/2020 00:00;Detroit Pistons;Oklahoma City Thunder
05/03/2020 00:00;Miami Heat;Orlando Magic
05/03/2020 00:30;Brooklyn Nets;Memphis Grizzlies
05/03/2020 00:30;New York Knicks;Utah Jazz
05/03/2020 01:00;Minnesota Timberwolves;Chicago Bulls
05/03/2020 01:30;Dallas Mavericks;New Orleans Pelicans
05/03/2020 02:30;Milwaukee Bucks;Indiana Pacers
05/03/2020 03:00;Portland Trail Blazers;Washington Wizards
06/03/2020 00:00;Charlotte Hornets;Denver Nuggets
06/03/2020 01:00;Houston Rockets;LA Clippers
06/03/2020 03:00;Sacramento Kings;Philadelphia 76ers
06/03/2020 03:30;Golden State Warriors;Toronto Raptors
07/03/2020 00:00;Washington Wizards;Atlanta Hawks
07/03/2020 00:30;Brooklyn Nets;San Antonio Spurs
07/03/2020 00:30;New York Knicks;Oklahoma City Thunder
07/03/2020 01:00;Boston Celtics;Utah Jazz
07/03/2020 01:00;Chicago Bulls;Indiana Pacers
07/03/2020 01:00;Minnesota Timberwolves;Orlando Magic
07/03/2020 01:00;New Orleans Pelicans;Miami Heat
07/03/2020 01:30;Dallas Mavericks;Memphis Grizzlies
07/03/2020 02:00;Phoenix Suns;Portland Trail Blazers
07/03/2020 03:30;Los Angeles Lakers;Milwaukee Bucks
07/03/2020 22:00;Charlotte Hornets;Houston Rockets
08/03/2020 00:00;Detroit Pistons;Utah Jazz
08/03/2020 00:30;Cleveland Cavaliers;Denver Nuggets
08/03/2020 01:00;Memphis Grizzlies;Atlanta Hawks
08/03/2020 01:30;Golden State Warriors;Philadelphia 76ers
08/03/2020 03:00;Portland Trail Blazers;Sacramento Kings
08/03/2020 19:00;Brooklyn Nets;Chicago Bulls
08/03/2020 19:30;Minnesota Timberwolves;New Orleans Pelicans
08/03/2020 19:30;LA Clippers;Los Angeles Lakers
08/03/2020 22:00;Boston Celtics;Oklahoma City Thunder
08/03/2020 22:00;Phoenix Suns;Milwaukee Bucks
08/03/2020 23:00;Washington Wizards;Miami Heat
08/03/2020 23:00;Dallas Mavericks;Indiana Pacers
08/03/2020 23:00;Houston Rockets;Orlando Magic
08/03/2020 23:30;Cleveland Cavaliers;San Antonio Spurs
08/03/2020 23:30;New York Knicks;Detroit Pistons
09/03/2020 01:00;Sacramento Kings;Toronto Raptors
09/03/2020 23:30;Atlanta Hawks;Charlotte Hornets
10/03/2020 01:00;Denver Nuggets;Milwaukee Bucks
10/03/2020 01:00;Utah Jazz;Toronto Raptors
10/03/2020 23:00;Indiana Pacers;Boston Celtics
10/03/2020 23:00;Washington Wizards;New York Knicks
11/03/2020 00:00;Chicago Bulls;Cleveland Cavaliers
11/03/2020 00:00;Houston Rockets;Minnesota Timberwolves
11/03/2020 00:00;Memphis Grizzlies;Orlando Magic
11/03/2020 00:00;San Antonio Spurs;Dallas Mavericks
11/03/2020 02:00;Portland Trail Blazers;Phoenix Suns
11/03/2020 02:30;Golden State Warriors;LA Clippers
11/03/2020 02:30;Los Angeles Lakers;Brooklyn Nets
11/03/2020 23:30;Atlanta Hawks;New York Knicks
11/03/2020 23:30;Miami Heat;Charlotte Hornets
11/03/2020 23:30;Philadelphia 76ers;Detroit Pistons
12/03/2020 00:00;Oklahoma City Thunder;Utah Jazz
12/03/2020 00:30;Dallas Mavericks;Denver Nuggets
12/03/2020 02:00;Sacramento Kings;New Orleans Pelicans
12/03/2020 23:00;Orlando Magic;Chicago Bulls
13/03/2020 00:00;Milwaukee Bucks;Boston Celtics
13/03/2020 02:00;Portland Trail Blazers;Memphis Grizzlies
13/03/2020 02:30;Golden State Warriors;Brooklyn Nets
13/03/2020 02:30;Los Angeles Lakers;Houston Rockets
13/03/2020 23:00;Charlotte Hornets;Cleveland Cavaliers
13/03/2020 23:30;Boston Celtics;Washington Wizards
14/03/2020 00:00;Miami Heat;New York Knicks
14/03/2020 00:00;Oklahoma City Thunder;Minnesota Timberwolves
14/03/2020 00:30;San Antonio Spurs;Denver Nuggets
14/03/2020 01:00;Utah Jazz;New Orleans Pelicans
14/03/2020 02:30;LA Clippers;Brooklyn Nets
14/03/2020 18:00;Dallas Mavericks;Phoenix Suns
14/03/2020 23:30;Atlanta Hawks;Cleveland Cavaliers
14/03/2020 23:30;Philadelphia 76ers;Indiana Pacers
14/03/2020 23:30;Toronto Raptors;Detroit Pistons
15/03/2020 00:00;Miami Heat;Chicago Bulls
15/03/2020 00:30;Milwaukee Bucks;Golden State Warriors
15/03/2020 00:30;San Antonio Spurs;Minnesota Timberwolves
15/03/2020 01:00;Utah Jazz;Memphis Grizzlies
15/03/2020 02:30;LA Clippers;New Orleans Pelicans
15/03/2020 19:30;Portland Trail Blazers;Houston Rockets
15/03/2020 22:00;Orlando Magic;Charlotte Hornets
15/03/2020 22:00;Washington Wizards;Oklahoma City Thunder
16/03/2020 00:00;Chicago Bulls;Boston Celtics
16/03/2020 01:00;Los Angeles Lakers;Denver Nuggets
16/03/2020 01:00;Sacramento Kings;Brooklyn Nets
16/03/2020 23:00;Philadelphia 76ers;Washington Wizards
17/03/2020 00:00;Toronto Raptors;Golden State Warriors
17/03/2020 00:00;Milwaukee Bucks;Miami Heat
17/03/2020 00:00;New Orleans Pelicans;Atlanta Hawks
17/03/2020 00:30;San Antonio Spurs;Memphis Grizzlies
17/03/2020 01:00;Utah Jazz;Los Angeles Lakers
17/03/2020 02:30;LA Clippers;Dallas Mavericks
17/03/2020 23:00;Detroit Pistons;Orlando Magic
17/03/2020 23:30;New York Knicks;Charlotte Hornets
18/03/2020 00:00;Houston Rockets;Cleveland Cavaliers
18/03/2020 00:00;Memphis Grizzlies;Oklahoma City Thunder
18/03/2020 02:00;Portland Trail Blazers;Minnesota Timberwolves
18/03/2020 02:00;Sacramento Kings;Dallas Mavericks
18/03/2020 23:00;Philadelphia 76ers;Toronto Raptors
18/03/2020 23:30;Atlanta Hawks;Oklahoma City Thunder
18/03/2020 23:30;Boston Celtics;New York Knicks
18/03/2020 23:30;Brooklyn Nets;Washington Wizards
18/03/2020 23:30;Indiana Pacers;Golden State Warriors
19/03/2020 00:00;Chicago Bulls;Miami Heat
19/03/2020 00:00;New Orleans Pelicans;San Antonio Spurs
19/03/2020 01:00;Denver Nuggets;LA Clippers
19/03/2020 02:00;Los Angeles Lakers;Utah Jazz
19/03/2020 02:00;Phoenix Suns;Minnesota Timberwolves
19/03/2020 23:00;Charlotte Hornets;Philadelphia 76ers
19/03/2020 23:00;Orlando Magic;Cleveland Cavaliers
20/03/2020 00:00;Houston Rockets;Sacramento Kings
20/03/2020 00:00;Milwaukee Bucks;Memphis Grizzlies
20/03/2020 02:00;Portland Trail Blazers;Dallas Mavericks
20/03/2020 23:00;Detroit Pistons;Golden State Warriors
20/03/2020 23:00;Indiana Pacers;Miami Heat
20/03/2020 23:30;Atlanta Hawks;Washington Wizards
20/03/2020 23:30;Toronto Raptors;Boston Celtics
21/03/2020 00:00;Oklahoma City Thunder;Denver Nuggets
21/03/2020 00:30;San Antonio Spurs;Chicago Bulls
21/03/2020 01:00;Utah Jazz;Minnesota Timberwolves
21/03/2020 02:30;LA Clippers;Phoenix Suns
21/03/2020 22:00;Brooklyn Nets;Boston Celtics
21/03/2020 23:00;Charlotte Hornets;Los Angeles Lakers
21/03/2020 23:00;Indiana Pacers;Cleveland Cavaliers
21/03/2020 23:00;Orlando Magic;Sacramento Kings
21/03/2020 23:00;Philadelphia 76ers;Atlanta Hawks
21/03/2020 23:30;New York Knicks;Golden State Warriors
22/03/2020 00:00;Washington Wizards;Milwaukee Bucks
22/03/2020 00:00;Houston Rockets;Chicago Bulls
22/03/2020 00:00;Memphis Grizzlies;New Orleans Pelicans
22/03/2020 02:00;Phoenix Suns;Dallas Mavericks
22/03/2020 22:00;Detroit Pistons;Los Angeles Lakers
22/03/2020 22:00;Toronto Raptors;Denver Nuggets
22/03/2020 23:00;Minnesota Timberwolves;Portland Trail Blazers
22/03/2020 23:00;New Orleans Pelicans;Sacramento Kings
22/03/2020 23:00;San Antonio Spurs;Utah Jazz
23/03/2020 23:00;Indiana Pacers;Phoenix Suns
23/03/2020 23:00;New York Knicks;LA Clippers
23/03/2020 23:00;Washington Wizards;Boston Celtics
23/03/2020 23:30;Brooklyn Nets;Orlando Magic
23/03/2020 23:30;Miami Heat;Oklahoma City Thunder
24/03/2020 00:00;Chicago Bulls;Denver Nuggets
24/03/2020 00:00;Milwaukee Bucks;Detroit Pistons
24/03/2020 00:30;Dallas Mavericks;Houston Rockets
24/03/2020 23:00;Charlotte Hornets;Portland Trail Blazers
24/03/2020 23:00;Cleveland Cavaliers;Sacramento Kings
24/03/2020 23:30;Toronto Raptors;Los Angeles Lakers
25/03/2020 00:00;Minnesota Timberwolves;Philadelphia 76ers
25/03/2020 00:00;New Orleans Pelicans;Memphis Grizzlies
25/03/2020 02:00;Utah Jazz;San Antonio Spurs
25/03/2020 23:00;Brooklyn Nets;LA Clippers
25/03/2020 23:00;Detroit Pistons;Portland Trail Blazers
25/03/2020 23:00;Orlando Magic;Indiana Pacers
25/03/2020 23:00;Washington Wizards;Phoenix Suns
25/03/2020 23:30;Miami Heat;Denver Nuggets
25/03/2020 23:30;New York Knicks;Toronto Raptors
26/03/2020 00:00;Memphis Grizzlies;Boston Celtics
26/03/2020 01:30;Milwaukee Bucks;Houston Rockets
26/03/2020 02:30;Golden State Warriors;Atlanta Hawks
26/03/2020 23:00;Cleveland Cavaliers;Los Angeles Lakers
27/03/2020 00:00;Chicago Bulls;Philadelphia 76ers
27/03/2020 00:00;Minnesota Timberwolves;San Antonio Spurs
27/03/2020 00:00;Oklahoma City Thunder;Charlotte Hornets
27/03/2020 00:30;Dallas Mavericks;Utah Jazz
27/03/2020 02:00;Sacramento Kings;Atlanta Hawks
27/03/2020 23:00;Detroit Pistons;LA Clippers
27/03/2020 23:00;Indiana Pacers;Houston Rockets
27/03/2020 23:00;Orlando Magic;Brooklyn Nets
27/03/2020 23:00;Philadelphia 76ers;Phoenix Suns
27/03/2020 23:30;Boston Celtics;Portland Trail Blazers
28/03/2020 00:00;New Orleans Pelicans;New York Knicks
28/03/2020 00:30;Milwaukee Bucks;Washington Wizards
28/03/2020 01:00;Denver Nuggets;San Antonio Spurs
28/03/2020 22:00;Brooklyn Nets;Cleveland Cavaliers
28/03/2020 23:00;Charlotte Hornets;LA Clippers
29/03/2020 00:00;Miami Heat;Phoenix Suns
29/03/2020 00:00;Washington Wizards;Los Angeles Lakers
29/03/2020 00:00;Chicago Bulls;New York Knicks
29/03/2020 00:00;Memphis Grizzlies;Toronto Raptors
29/03/2020 00:30;Golden State Warriors;Oklahoma City Thunder
29/03/2020 01:00;Utah Jazz;Atlanta Hawks
29/03/2020 19:00;Dallas Mavericks;Milwaukee Bucks
29/03/2020 21:00;Detroit Pistons;Houston Rockets
29/03/2020 22:00;Boston Celtics;Minnesota Timberwolves
29/03/2020 22:00;Orlando Magic;New Orleans Pelicans
29/03/2020 23:30;Philadelphia 76ers;Portland Trail Blazers
30/03/2020 00:30;Golden State Warriors;San Antonio Spurs
30/03/2020 01:00;Sacramento Kings;Indiana Pacers
30/03/2020 23:00;Charlotte Hornets;Miami Heat
30/03/2020 23:00;Cleveland Cavaliers;Phoenix Suns
30/03/2020 23:30;Brooklyn Nets;Portland Trail Blazers
30/03/2020 23:30;Toronto Raptors;Memphis Grizzlies
31/03/2020 00:00;Minnesota Timberwolves;Los Angeles Lakers
31/03/2020 01:00;Denver Nuggets;Oklahoma City Thunder
31/03/2020 01:00;Utah Jazz;Chicago Bulls
31/03/2020 02:30;LA Clippers;Indiana Pacers
31/03/2020 23:30;Atlanta Hawks;New Orleans Pelicans
31/03/2020 23:30;Philadelphia 76ers;Houston Rockets
01/04/2020 02:00;Golden State Warriors;Denver Nuggets
01/04/2020 02:00;Sacramento Kings;San Antonio Spurs
01/04/2020 23:00;Orlando Magic;Charlotte Hornets
01/04/2020 23:00;Washington Wizards;New Orleans Pelicans
01/04/2020 23:30;Boston Celtics;Miami Heat
01/04/2020 23:30;Brooklyn Nets;Detroit Pistons
02/04/2020 00:00;Memphis Grizzlies;New York Knicks
02/04/2020 00:00;Minnesota Timberwolves;Dallas Mavericks
02/04/2020 00:00;Oklahoma City Thunder;Phoenix Suns
02/04/2020 01:00;Milwaukee Bucks;Toronto Raptors
02/04/2020 01:00;Utah Jazz;Cleveland Cavaliers
02/04/2020 02:30;Los Angeles Lakers;Indiana Pacers
03/04/2020 00:00;Houston Rockets;Golden State Warriors
03/04/2020 02:00;Sacramento Kings;LA Clippers
03/04/2020 02:30;Portland Trail Blazers;Utah Jazz
03/04/2020 23:00;Detroit Pistons;Miami Heat
03/04/2020 23:00;Indiana Pacers;Brooklyn Nets
03/04/2020 23:00;Washington Wizards;Philadelphia 76ers
03/04/2020 23:30;Atlanta Hawks;Charlotte Hornets
03/04/2020 23:30;Boston Celtics;Orlando Magic
03/04/2020 23:30;New York Knicks;Minnesota Timberwolves
03/04/2020 23:30;Toronto Raptors;Milwaukee Bucks
04/04/2020 00:00;Memphis Grizzlies;Dallas Mavericks
04/04/2020 00:30;San Antonio Spurs;Golden State Warriors
04/04/2020 01:00;Denver Nuggets;Chicago Bulls
04/04/2020 02:00;Phoenix Suns;Cleveland Cavaliers
04/04/2020 19:30;LA Clippers;Oklahoma City Thunder
05/04/2020 02:00;Sacramento Kings;Los Angeles Lakers
05/04/2020 17:00;Charlotte Hornets;Atlanta Hawks
05/04/2020 17:00;Philadelphia 76ers;Orlando Magic
05/04/2020 19:30;Boston Celtics;Milwaukee Bucks
05/04/2020 21:00;Indiana Pacers;Washington Wizards
05/04/2020 21:00;New York Knicks;Miami Heat
05/04/2020 22:00;Brooklyn Nets;Dallas Mavericks
05/04/2020 22:00;Denver Nuggets;Utah Jazz
05/04/2020 22:00;Phoenix Suns;Chicago Bulls
05/04/2020 23:00;Houston Rockets;Toronto Raptors
05/04/2020 23:00;Minnesota Timberwolves;Detroit Pistons
05/04/2020 23:00;San Antonio Spurs;New Orleans Pelicans
06/04/2020 01:00;Portland Trail Blazers;Memphis Grizzlies
06/04/2020 01:00;Sacramento Kings;Cleveland Cavaliers
06/04/2020 01:30;Los Angeles Lakers;Oklahoma City Thunder
07/04/2020 23:00;Washington Wizards;Toronto Raptors
07/04/2020 23:30;Atlanta Hawks;Detroit Pistons
07/04/2020 23:30;Miami Heat;Indiana Pacers
07/04/2020 23:30;Philadelphia 76ers;Milwaukee Bucks
08/04/2020 00:00;Minnesota Timberwolves;Phoenix Suns
08/04/2020 00:00;New Orleans Pelicans;Charlotte Hornets
08/04/2020 00:00;Oklahoma City Thunder;Brooklyn Nets
08/04/2020 00:30;Dallas Mavericks;Houston Rockets
08/04/2020 00:30;San Antonio Spurs;Sacramento Kings
08/04/2020 01:00;Denver Nuggets;Memphis Grizzlies
08/04/2020 02:00;Utah Jazz;LA Clippers
08/04/2020 02:00;Portland Trail Blazers;Cleveland Cavaliers
08/04/2020 02:30;Los Angeles Lakers;Chicago Bulls
08/04/2020 23:00;Boston Celtics;Indiana Pacers
08/04/2020 23:00;Charlotte Hornets;Toronto Raptors
08/04/2020 23:30;New York Knicks;Orlando Magic
09/04/2020 01:30;Houston Rockets;San Antonio Spurs
09/04/2020 02:30;Golden State Warriors;Cleveland Cavaliers
09/04/2020 02:30;LA Clippers;Chicago Bulls
09/04/2020 23:30;Miami Heat;Detroit Pistons
10/04/2020 00:00;Milwaukee Bucks;Brooklyn Nets
10/04/2020 00:00;Minnesota Timberwolves;Sacramento Kings
10/04/2020 00:00;New Orleans Pelicans;Phoenix Suns
10/04/2020 02:00;Portland Trail Blazers;Denver Nuggets
10/04/2020 02:30;Los Angeles Lakers;Golden State Warriors
10/04/2020 23:00;Orlando Magic;Boston Celtics
10/04/2020 23:30;Toronto Raptors;Atlanta Hawks
11/04/2020 00:00;Houston Rockets;Washington Wizards
11/04/2020 00:00;Oklahoma City Thunder;New York Knicks
11/04/2020 00:30;San Antonio Spurs;Philadelphia 76ers
11/04/2020 19:00;Dallas Mavericks;Detroit Pistons
11/04/2020 23:00;Charlotte Hornets;Washington Wizards
11/04/2020 23:00;Indiana Pacers;Orlando Magic
11/04/2020 23:00;New Orleans Pelicans;Philadelphia 76ers
11/04/2020 23:30;Cleveland Cavaliers;Milwaukee Bucks
12/04/2020 00:00;Miami Heat;Boston Celtics
12/04/2020 00:00;Chicago Bulls;Brooklyn Nets
12/04/2020 00:00;Memphis Grizzlies;Oklahoma City Thunder
12/04/2020 00:30;LA Clippers;Golden State Warriors
12/04/2020 01:00;Denver Nuggets;Sacramento Kings
12/04/2020 02:00;Phoenix Suns;Utah Jazz
12/04/2020 19:30;San Antonio Spurs;Houston Rockets
12/04/2020 22:00;Toronto Raptors;New York Knicks
12/04/2020 23:00;Milwaukee Bucks;Atlanta Hawks
13/04/2020 01:30;Los Angeles Lakers;Minnesota Timberwolves
13/04/2020 23:00;Charlotte Hornets;Miami Heat
13/04/2020 23:00;Cleveland Cavaliers;Brooklyn Nets
13/04/2020 23:00;Detroit Pistons;Boston Celtics
13/04/2020 23:00;Indiana Pacers;San Antonio Spurs
14/04/2020 00:00;Chicago Bulls;Orlando Magic
14/04/2020 00:00;Houston Rockets;Phoenix Suns
14/04/2020 00:00;Memphis Grizzlies;Philadelphia 76ers
14/04/2020 00:00;New Orleans Pelicans;Washington Wizards
14/04/2020 00:00;Oklahoma City Thunder;Utah Jazz
14/04/2020 01:00;Denver Nuggets;Dallas Mavericks
14/04/2020 02:30;Golden State Warriors;Portland Trail Blazers
14/04/2020 02:30;LA Clippers;Minnesota Timberwolves
14/04/2020 23:30;Miami Heat;Toronto Raptors
14/04/2020 23:30;New York Knicks;Detroit Pistons
15/04/2020 02:00;Utah Jazz;Denver Nuggets
15/04/2020 02:30;Los Angeles Lakers;Sacramento Kings
15/04/2020 23:30;Atlanta Hawks;Cleveland Cavaliers
15/04/2020 23:30;Boston Celtics;Chicago Bulls
15/04/2020 23:30;Brooklyn Nets;Milwaukee Bucks
15/04/2020 23:30;Orlando Magic;Toronto Raptors
15/04/2020 23:30;Philadelphia 76ers;Charlotte Hornets
15/04/2020 23:30;Washington Wizards;Indiana Pacers
15/04/2020 23:30;Dallas Mavericks;Oklahoma City Thunder
15/04/2020 23:30;Houston Rockets;Memphis Grizzlies
15/04/2020 23:30;Minnesota Timberwolves;New York Knicks
15/04/2020 23:30;San Antonio Spurs;New Orleans Pelicans
16/04/2020 02:00;Phoenix Suns;Los Angeles Lakers
16/04/2020 02:00;Portland Trail Blazers;LA Clippers
16/04/2020 02:00;Sacramento Kings;Golden State Warriors